[
    {
        "key": "group_59491c6519382",
        "title": "Contact info",
        "fields": [
            {
                "key": "field_59491c5b6a94e",
                "label": "Fonction",
                "name": "fonction",
                "type": "text",
                "instructions": "",
                "required": 1,
                "conditional_logic": 0,
                "wrapper": {
                    "width": "",
                    "class": "",
                    "id": ""
                },
                "default_value": "",
                "placeholder": "In english",
                "prepend": "",
                "append": "",
                "maxlength": ""
            },
            {
                "key": "field_59491c6f6a94f",
                "label": "E-mail",
                "name": "e-mail",
                "type": "email",
                "instructions": "",
                "required": 1,
                "conditional_logic": 0,
                "wrapper": {
                    "width": "",
                    "class": "",
                    "id": ""
                },
                "default_value": "",
                "placeholder": "",
                "prepend": "",
                "append": ""
            },
            {
                "key": "field_59491c836a950",
                "label": "Numéro de gsm",
                "name": "numero_de_gsm",
                "type": "text",
                "instructions": "",
                "required": 1,
                "conditional_logic": 0,
                "wrapper": {
                    "width": "",
                    "class": "",
                    "id": ""
                },
                "default_value": "",
                "placeholder": "+32XXXXXXXXXX",
                "prepend": "",
                "append": "",
                "maxlength": ""
            },
            {
                "key": "field_594a33352cfdf",
                "label": "Numéro de fixe",
                "name": "numero_de_fixe",
                "type": "text",
                "instructions": "",
                "required": 0,
                "conditional_logic": 0,
                "wrapper": {
                    "width": "",
                    "class": "",
                    "id": ""
                },
                "default_value": "",
                "placeholder": "+32XXXXXXXXXX",
                "prepend": "",
                "append": "",
                "maxlength": ""
            }
        ],
        "location": [
            [
                {
                    "param": "post_type",
                    "operator": "==",
                    "value": "contact"
                }
            ]
        ],
        "menu_order": 6,
        "position": "acf_after_title",
        "style": "default",
        "label_placement": "top",
        "instruction_placement": "label",
        "hide_on_screen": [
            "the_content"
        ],
        "active": 1,
        "description": ""
    }
]